{
    "action":"GET",
    "component": "user",
    "description":"User Details: Test settings and permission for user akan@wpi.edu.",
    "user":{"uname":"akan@wpi.edu","pword":"knight123"},
    "data":{
        "url":"/ajax/user/",
        "header":"",
        "cookies":""
    },
    "exp_results": {
        "http_code": 200,
        "username":"akan@wpi.edu",
        "email":"akan@wpi.edu",
        "default_deployment":"1",
        "is_kiadmin": false
    }
    
}
