{
    "$schema": "http://json-schema.org/draft-04/schema#",
    "type": "object",
    "properties": {
      "deployment": {
        "type": "string"
      },
      "whitelist": {
        "type": "array",
        "items": [
          {
            "type": "object",
            "properties": {
              "plate_number": {
                "type": "null"
              },
              "employee_name": {
                "type": "string"
              },
              "reason": {
                "type": "null"
              }
            },
            "required": [
              "plate_number",
              "employee_name",
              "reason"
            ]
          }
        ]
      },
      "is_last": {
        "type": "boolean"
      },
      "page": {
        "type": "integer"
      }
    },
    "required": [
      "deployment",
      "whitelist",
      "is_last",
      "page"
    ]
  }