{
    "$schema": "http://json-schema.org/draft-04/schema#",
    "type": "object",
    "properties": {
      "deployment": {
        "type": "integer"
      },
      "alpr_sort": {
        "type": "array",
        "items": [
          {
            "type": "object",
            "properties": {
              "plate_number": {
                "type": "string"
              },
              "duration": {
                "type": "integer"
              },
              "alpr_id": {
                "type": "integer"
              }
            },
            "required": [
              "plate_number",
              "duration",
              "alpr_id"
            ]
          }
        ]
      }
    },
    "required": [
      "deployment",
      "alpr_sort"
    ]
  }