{
    "$schema": "http://json-schema.org/draft-04/schema#",
    "type": "object",
    "properties": {
      "deployment": {
        "type": "string"
      },
      "is_last": {
        "type": "boolean"
      },
      "aod": {
        "type": "array",
        "items": [
            {
            "type": "object",
            "properties": {
                "aod_ID": {
                "type": "integer"
                },
                "time_stamp": {
                "type": "string"
                },
                "numberOfPeople": {
                "type": "integer"
                },
                "image_url": {
                "type": "string"
                },
                "threat_level": {
                "type": "null"
                },
                "MIN": {
                "type": "integer"
                },
                "sector_ID": {
                "type": "integer"
                },
                "sector_name": {
                "type": "string"
                },
                "deployment_ID": {
                "type": "string"
                },
                "deployment_name": {
                "type": "string"
                },
                "camera": {
                "type": "string"
                },
                "latitude": {
                "type": "number"
                },
                "longitude": {
                "type": "number"
                },
                "level": {
                "type": "integer"
                },
                "false_positive": {
                "type": "null"
                },
                "detected_objects": {
                "type": "null"
                }
            },
            "required": [
                "aod_ID",
                "time_stamp",
                "numberOfPeople",
                "image_url",
                "threat_level",
                "MIN",
                "sector_ID",
                "sector_name",
                "deployment_ID",
                "deployment_name",
                "camera",
                "latitude",
                "longitude",
                "level",
                "false_positive",
                "detected_objects"
            ]
            }
        ]
        }
    },
    "required": [
        "deployment",
        "is_last",
        "aod"
    ]
    }