{
    "$schema": "http://json-schema.org/draft-04/schema#",
    "type": "object",
    "properties": {
      "devices": {
        "type": "array",
        "items": [
          {
            "type": "object",
            "properties": {
              "count": {
                "type": "integer"
              },
              "timestamp": {
                "type": "integer"
              }
            },
            "required": [
              "count",
              "timestamp"
            ]
          }
        ]
      }
    },
    "required": [
      "devices"
    ]
  }