{
    "$schema": "http://json-schema.org/draft-04/schema#",
    "type": "object",
    "properties": {
      "deployment": {
        "type": "string"
      },
      "asd_sort": {
        "type": "array",
        "items": [
          {
            "type": "object",
            "properties": {
              "name": {
                "type": "string"
              },
              "MAC_ID": {
                "type": "integer"
              },
              "dwell_time": {
                "type": "integer"
              }
            },
            "required": [
              "name",
              "MAC_ID",
              "dwell_time"
            ]
          }
        ]
      }
    },
    "required": [
      "deployment",
      "asd_sort"
    ]
  }