{
    "$schema": "http://json-schema.org/draft-04/schema#",
    "type": "object",
    "properties": {
      "type": {
        "type": "string"
      },
      "deployment": {
        "type": "string"
      },
      "page": {
        "type": "integer"
      },
      "total": {
        "type": "integer"
      },
      "is_last": {
        "type": "boolean"
      },
      "macs": {
        "type": "array",
        "items": [
          {
            "type": "object",
            "properties": {
              "name": {
                "type": "string"
              },
              "MAC_ID": {
                "type": "integer"
              },
              "MAC_ADDRESS": {
                "type": "string"
              },
              "manufacturer": {
                "type": "string"
              },
              "type_of_device": {
                "type": "string"
              },
              "first_seen": {
                "type": "string"
              },
              "last_seen": {
                "type": "string"
              },
              "employee_image_url": {
                "type": "string"
              }
            },
            "required": [
              "name",
              "MAC_ID",
              "MAC_ADDRESS",
              "manufacturer",
              "type_of_device",
              "first_seen",
              "last_seen",
              "employee_image_url"
            ]
          }
        ]
      }
    },
    "required": [
      "type",
      "deployment",
      "page",
      "total",
      "is_last",
      "macs"
    ]
  }