{
    "$schema": "http://json-schema.org/draft-04/schema#",
    "type": "object",
    "properties": {
      "deployment_ID": {
        "type": "string"
      },
      "successful_machines": {
        "type": "array",
        "items": [
          {
            "type": "string"
          }
        ]
      },
      "failed_machines": {
        "type": "array",
        "items": [
          {
            "type": "string"
          }
        ]
      },
      "success": {
        "type": "boolean"
      }
    },
    "required": [
      "deployment_ID",
      "successful_machines",
      "failed_machines",
      "success"
    ]
  }