{
    "$schema": "http://json-schema.org/draft-04/schema#",
    "type": "object",
    "properties": {
      "on_broadcast": {
        "type": "array",
        "items": {}
      },
      "on_live_audio": {
        "type": "array",
        "items": {}
      },
      "on_intercom": {
        "type": "array",
        "items": {}
      },
      "time_stamp": {
        "type": "string"
      }
    },
    "required": [
      "on_broadcast",
      "on_live_audio",
      "on_intercom",
      "time_stamp"
    ]
  }