{
    "$schema": "http://json-schema.org/draft-04/schema#",
    "type": "object",
    "properties": {
      "deployment_ID": {
        "type": "string"
      },
      "categories": {
        "type": "object",
        "properties": {
          "Emergency": {
            "type": "array",
            "items": [
              {
                "type": "object",
                "properties": {
                  "file_ID": {
                    "type": "integer"
                  },
                  "file_length_seconds": {
                    "type": "integer"
                  },
                  "message": {
                    "type": "string"
                  },
                  "category": {
                    "type": "string"
                  }
                },
                "required": [
                  "file_ID",
                  "file_length_seconds",
                  "message",
                  "category"
                ]
              }
            ]
          }
        },
        "required": [
          "Emergency",
          "Greeting",
          "Knightscope",
          "Custom"
        ]
      }
    },
    "required": [
      "deployment_ID",
      "categories"
    ]
  }