{
    "$schema": "http://json-schema.org/draft-04/schema#",
    "type": "object",
    "properties": {
      "deployment": {
        "type": "string"
      },
      "Blacklist": {
        "type": "array",
        "items": [
          {
            "type": "object",
            "properties": {
              "employeeID": {
                "type": "string"
              },
              "employee_name": {
                "type": "string"
              },
              "reason": {
                "type": "string"
              }
            },
            "required": [
              "employeeID",
              "employee_name",
              "reason"
            ]
          }
        ]
      }
    },
    "required": [
      "deployment",
      "Blacklist"
    ]
  }