{
    "$schema": "http://json-schema.org/draft-04/schema#",
    "type": "object",
    "properties": {
      "deployment": {
        "type": "string"
      },
      "charge_pad": {
        "type": "array",
        "items": [
          {
            "type": "object",
            "properties": {
              "chargepad_ID": {
                "type": "integer"
              },
              "latitude": {
                "type": "number"
              },
              "longitude": {
                "type": "number"
              }
            },
            "required": [
              "chargepad_ID",
              "latitude",
              "longitude"
            ]
          }
        ]
      }
    },
    "required": [
      "deployment",
      "charge_pad"
    ]
  }