{
    "$schema": "http://json-schema.org/draft-04/schema#",
    "type": "object",
    "properties": {
      "deployment_ID": {
        "type": "string"
      },
      "deployment_name": {
        "type": "string"
      },
      "deployment_address": {
        "type": "string"
      },
      "is_active": {
        "type": "boolean"
      },
      "sectors": {
        "type": "array",
        "items": [
          {
            "type": "object",
            "properties": {
              "sector_name": {
                "type": "string"
              },
              "sector_ID": {
                "type": "integer"
              },
              "machines": {
                "type": "array",
                "items": [
                  {
                    "type": "object",
                    "properties": {
                      "MIN": {
                        "type": "integer"
                      }
                    },
                    "required": [
                      "MIN"
                    ]
                  }
                ]
              },
              "information": {
                "type": "string"
              }
            },
            "required": [
              "sector_name",
              "sector_ID",
              "machines",
              "information"
            ]
          }
        ]
      },
      "mq_url": {
        "type": "string"
      },
      "mq_vhost": {
        "type": "string"
      },
      "start_date": {
        "type": "string"
      },
      "end_date": {
        "type": "string"
      },
      "ship_date": {
        "type": "string"
      },
      "KSOC_url": {
        "type": "string"
      },
      "default_video_to_four_cameras": {
        "type": "boolean"
      },
      "default_lat": {
        "type": "number"
      },
      "default_lng": {
        "type": "number"
      },
      "default_map_view": {
        "type": "string"
      },
      "deployment_timezone": {
        "type": "string"
      },
      "default_map_zoom": {
        "type": "integer"
      },
      "has_indoormap": {
        "type": "boolean"
      },
      "has_aod": {
        "type": "boolean"
      },
      "has_thermal": {
        "type": "boolean"
      },
      "has_alpr": {
        "type": "boolean"
      },
      "has_asd": {
        "type": "boolean"
      },
      "has_badges": {
        "type": "boolean"
      },
      "has_control_panel": {
        "type": "boolean"
      },
      "has_patrol_scheduler": {
        "type": "boolean"
      },
      "can_park_near_chargepad": {
        "type": "boolean"
      },
      "has_timeline": {
        "type": "boolean"
      },
      "has_parking_meter": {
        "type": "boolean"
      },
      "has_parking_utilization": {
        "type": "boolean"
      },
      "has_face_recognition": {
        "type": "boolean"
      },
      "aws_rekognition_collection": {
        "anyOf":[
          {"type": "null"},
          {"type": "string"}
        ]
      },
      "connectivity_type": {
        "type": "string"
      },
      "cellular_timeout_sec": {
        "type": "integer"
      },
      "video_storage_in_days": {
        "type": "integer"
      },
      "has_data_overage_charge": {
        "type": "boolean"
      },
      "sso_provider": {
        "type": "null"
      }
    },
    "required": [
      "deployment_ID",
      "deployment_name",
      "deployment_address",
      "is_active",
      "sectors",
      "start_date",
      "ship_date",
      "KSOC_url"
    ]
  }