{
    "$schema": "http://json-schema.org/draft-04/schema#",
    "type": "object",
    "properties": {
      "interval": {
        "type": "string"
      },
      "result": {
        "type": "array",
        "items": [
          {
            "type": "object",
            "properties": {
              "timestamp": {
                "type": "integer"
              },
              "count": {
                "type": "integer"
              },
              "type": {
                "type": "string"
              }
            },
            "required": [
              "timestamp",
              "count",
              "type"
            ]
          }
        ]
    }
},
    "required": [
      "interval",
      "result"
    ]
}
