{
    "$schema": "http://json-schema.org/draft-04/schema#",
    "type": "object",
    "properties": {
      "deployment": {
        "type": "string"
      },
      "face_ID": {
        "type": "string"
      },
      "image": {
        "type": "object",
        "properties": {
          "image_url": {
            "type": "string"
          },
          "aws_face_ID": {
            "type": "string"
          }
        },
        "required": [
          "image_url",
          "aws_face_ID"
        ]
      }
    },
    "required": [
      "deployment",
      "face_ID",
      "image"
    ]
  }