{
    "$schema": "http://json-schema.org/draft-04/schema#",
    "type": "object",
    "properties": {
      "MIN": {
        "type": "string"
      },
      "audio_pc": {
        "type": "boolean"
      },
      "concierge": {
        "type": "boolean"
      },
      "escalation_number": {
        "type": "string"
      },
      "escalation_timer": {
        "type": "number"
      },
      "allow_echo_cancel": {
        "type": "boolean"
      },
      "allow_escalation": {
        "type": "boolean"
      },
      "allow_intercom_between_phone_and_min": {
        "type": "boolean"
      },
      "audio_speaker": {
        "type": "string"
      },
      "audio_mic": {
        "type": "string"
      },
      "adm_platform": {
        "type": "string"
      },
      "deployment_ID": {
        "type": "string"
      },
      "deployment_name": {
        "type": "string"
      },
      "deployment_timezone": {
        "type": "string"
      },
      "pcb_revision": {
        "type": "string"
      },
      "imu": {
        "type": "string"
      },
      "rtk_gps": {
        "type": "boolean"
      },
      "rfid": {
        "type": "boolean"
      },
      "thermal": {
        "type": "boolean"
      },
      "asd": {
        "type": "boolean"
      },
      "camera_type": {
        "type": "string"
      },
      "video_hardware": {
        "type": "string"
      },
      "encryption": {
        "type": "boolean"
      },
      "charge_by_voltage": {
        "type": "boolean"
      },
      "model_configuration": {
        "type": "object"
      }
    },
    "required": [
      "MIN",
      "audio_pc",
      "concierge",
      "escalation_number",
      "escalation_timer",
      "allow_echo_cancel",
      "allow_escalation",
      "allow_intercom_between_phone_and_min",
      "audio_speaker",
      "audio_mic",
      "adm_platform",
      "deployment_ID",
      "deployment_name",
      "deployment_timezone",
      "pcb_revision",
      "imu",
      "rtk_gps",
      "rfid",
      "thermal",
      "asd",
      "camera_type",
      "video_hardware",
      "encryption",
      "charge_by_voltage",
      "model_configuration"
    ]
  }