{
    "$schema": "http://json-schema.org/draft-04/schema#",
    "type": "object",
    "properties": {
      "current_machine": {
        "type": "integer"
      },
      "adm_platform": {
        "type": "string"
      },
      "sector": {
        "type": "integer"
      },
      "deployment": {
        "type": "string"
      },
      "emergency_stopped": {
        "type": "boolean"
      },
      "audio_mute": {
        "type": "boolean"
      },
      "video_storage": {
        "type": "string"
      },
      "gps": {
        "type": "object",
        "properties": {
          "latitude": {
            "type": "number"
          },
          "longitude": {
            "type": "number"
          },
          "level": {
            "type": "integer"
          }
        },
        "required": [
          "latitude",
          "longitude",
          "level"
        ]
      },
      "status": {
        "type": "string"
      },
      "status_color": {
        "type": "string"
      },
      "deployment_ID": {
        "type": "string"
      },
      "deployment_name": {
        "type": "string"
      },
      "deployment_address": {
        "type": "string"
      },
      "hw_version": {
        "type": "string"
      },
      "service_issues": {
        "type": "string"
      },
      "pending_upgrades": {
        "type": "string"
      },
      "configuration": {
        "type": "string"
      },
      "comments": {
        "type": "string"
      },
      "service_history": {
        "type": "string"
      },
      "active": {
        "type": "boolean"
      },
      "online": {
        "type": "boolean"
      },
      "pagerduty_service": {
        "type": "integer"
      },
      "production_date": {
        "type": "integer"
      },
      "min_name": {
        "anyOf":[
          {"type": "string"},
          {"type": "null"}
        ]
      }
    },
    "required": [
      "current_machine",
      "adm_platform",
      "sector",
      "deployment",
      "emergency_stopped",
      "audio_mute",
      "video_storage",
      "gps",
      "status",
      "status_color",
      "deployment_ID",
      "deployment_name",
      "deployment_address",
      "hw_version",
      "service_issues",
      "pending_upgrades",
      "configuration",
      "comments",
      "service_history",
      "active",
      "online",
      "pagerduty_service",
      "production_date",
      "min_name"
    ]
  }