{
    "$schema": "http://json-schema.org/draft-04/schema#",
    "type": "object",
    "properties": {
      "deployments": {
        "type": "array",
        "items": [
          {
            "type": "object",
            "properties": {
              "deployment_name": {
                "type": "string"
              },
              "deployment_ID": {
                "type": "string"
              },
              "KSOC_url": {
                "type": "string"
              }
            },
            "required": [
              "deployment_name",
              "deployment_ID",
              "KSOC_url"
            ]
          }
        ]
      }
    },
    "required": [
      "deployments"
    ]
  }