{
    "$schema": "http://json-schema.org/draft-04/schema#",
    "type": "object",
    "properties": {
      "deployment": {
        "type": "string"
      },
      "events": {
        "type": "array",
        "items": [
          {
            "type": "object",
            "properties": {
              "time_stamp": {
                "type": "string"
              },
              "MIN": {
                "type": "integer"
              },
              "event_type": {
                "type": "string"
              },
              "event_ID": {
                "type": "integer"
              },
              "sector_ID": {
                "type": "integer"
              },
              "sector_name": {
                "type": "string"
              },
              "threat_level": {
                "type": "integer"
              },
              "clear": {
                "type": "boolean"
              },
              "customer_event": {
                "type": "boolean"
              },
              "manual_entry": {
                "type": "boolean"
              },
              "deployment": {
                "type": "string"
              }
            },
            "required": [
              "time_stamp",
              "MIN",
              "event_type",
              "event_ID",
              "sector_ID",
              "sector_name",
              "threat_level",
              "clear",
              "customer_event",
              "manual_entry",
              "deployment"
            ]
          }
        ]
      },
      "is_last": {
        "type": "boolean"
      }
    },
    "required": [
      "deployment",
      "events",
      "is_last"
    ]
  }