{
    "$schema": "http://json-schema.org/draft-04/schema#",
    "type": "array",
    "items": [
      {
        "type": "object",
        "properties": {
          "sector_ID": {
            "type": "integer"
          },
          "deployment_zone_ID": {
            "type": "integer"
          },
          "sector_name": {
            "type": "string"
          },
          "deployment": {
            "type": "string"
          },
          "information": {
            "type": "string"
          },
          "levels": {
            "type": "array",
            "items": {}
          }
        },
        "required": [
          "sector_ID",
          "deployment_zone_ID",
          "sector_name",
          "deployment",
          "information",
          "levels"
        ]
    }
]
}
