{
    "$schema": "http://json-schema.org/draft-04/schema#",
    "type": "array",
    "items": [
      {
        "type": "object",
        "properties": {
          "point_ID": {
            "type": "integer"
          },
          "latitude": {
            "type": "number"
          },
          "longitude": {
            "type": "number"
          }
        },
        "required": [
          "point_ID",
          "latitude",
          "longitude"
        ]
      }
    ]
  }