{
    "$schema": "http://json-schema.org/draft-07/schema#",
    "type":"object",
    "properties":{
        "deployment": {"type":"string"},
        "users": {
            "type":"array",
            "items": {
                "type":"object",
                "properties": {
                    "username": {"type":"string"}
                },
                "required":["username"]
            },
            "minItems": 1
        }
    },
    "required": [
        "deployment",
        "users"
      ]
}