{
    "$schema": "http://json-schema.org/draft-04/schema#",
    "type": "object",
    "properties": {
      "page": {
        "type": "integer"
      },
      "deployment": {
        "type": "string"
      },
      "videos": {
        "type": "array",
        "items": [
          {
            "type": "object",
            "properties": {
              "id": {
                "type": "string"
              },
              "MIN": {
                "type": "integer"
              },
              "status": {
                "type": "string"
              },
              "time_stamp": {
                "type": "string"
              },
              "start_time": {
                "type": "string"
              },
              "end_time": {
                "type": "string"
              },
              "deployment": {
                "type": "string"
              },
              "quality": {
                "type": "string"
              },
              "transfer_to_cloud": {
                "type": "boolean"
              },
              "transfer_complete": {
                "type": "boolean"
              },
              "request_time_stamp": {
                "type": "string"
              },
              "user": {
                "type": "string"
              },
              "requested_clip": {
                "type": "boolean"
              },
              "event": {
                "type": "boolean"
              },
              "temporary_path": {
                "anyOf":[
                    {"type": "null"},
                    {"type": "string"}
                ]
              },
              "detection_type": {
                  "anyOf":[
                      {"type": "null"},
                      {"type": "string"}
                  ]
              }
            },
            "required": [
              "id",
              "MIN",
              "status",
              "time_stamp",
              "start_time",
              "end_time",
              "deployment",
              "quality",
              "transfer_to_cloud",
              "transfer_complete",
              "request_time_stamp",
              "user",
              "requested_clip",
              "event",
              "temporary_path",
              "detection_type"
            ]
          }
        ]
      },
      "is_last": {
        "type": "boolean"
      }
    },
    "required": [
      "page",
      "deployment",
      "videos",
      "is_last"
    ]
  }