{
    "$schema": "http://json-schema.org/draft-04/schema#",
    "type": "object",
    "properties": {
      "success": {
        "type": "boolean"
      },
      "message": {
        "type": "string",
        "enum":["Returning data for LTE Usage Bar"]
      },
      "data_usage": {
        "type": "integer"
      },
      "data_cap": {
        "type": "null"
      },
      "dc_start_datetime": {
        "type": "integer"
      },
      "dc_end_datetime": {
        "type": "integer"
      }
    },
    "required": [
      "success",
      "message",
      "data_usage",
      "data_cap",
      "dc_start_datetime",
      "dc_end_datetime"
    ]
  }